…
Summarize within cities to obtain the total number of homicides and the
number of unsolved homicides

``` r
homicides %>%
  group_by(city_state) %>%
  summarise(
    unsolved = sum(resolution == "unsolved"),
    total = n()
  ) #%>%
```

    ## # A tibble: 50 × 3
    ##    city_state    unsolved total
    ##    <chr>            <int> <int>
    ##  1 AlbuquerqueNM      146   378
    ##  2 AtlantaGA          373   973
    ##  3 BaltimoreMD       1825  2827
    ##  4 Baton RougeLA      196   424
    ##  5 BirminghamAL       347   800
    ##  6 BostonMA           310   614
    ##  7 BuffaloNY          319   521
    ##  8 CharlotteNC        206   687
    ##  9 ChicagoIL         4073  5535
    ## 10 CincinnatiOH       309   694
    ## # … with 40 more rows
…
  ) %>%
  pivot_longer(
    week_1:week_8,
    names_to = "week",
    names_prefix = "week_",
    values_to = "observations"
  ) %>%
  mutate(
    id = as.factor(as.numeric(id)),
    week = as.numeric(week)
  )
zip_tidy
```

    ## # A tibble: 160 × 4
    ##    arm     id     week observations
    ##    <chr>   <fct> <dbl>        <dbl>
    ##  1 control 1         1         0.2 
    ##  2 control 1         2        -1.31
    ##  3 control 1         3         0.66
    ##  4 control 1         4         1.96
    ##  5 control 1         5         0.23
    ##  6 control 1         6         1.09
    ##  7 control 1         7         0.05
    ##  8 control 1         8         1.94
    ##  9 control 2         1         1.13
    ## 10 control 2         2        -0.88
    ## # … with 150 more rows
…
  return(vector)
}
```

Apply the function column by column

``` r
iris_with_missing <-
  iris_with_missing %>%
  map(fill_in_missing)

bind_rows(iris_with_missing)
```

    ## # A tibble: 150 × 5
    ##    Sepal.Length Sepal.Width Petal.Length Petal.Width Species
    ##           <dbl>       <dbl>        <dbl>       <dbl> <chr>  
    ##  1         5.1          3.5         1.4         0.2  setosa 
    ##  2         4.9          3           1.4         0.2  setosa 
    ##  3         4.7          3.2         1.3         0.2  setosa 
    ##  4         4.6          3.1         1.5         1.19 setosa 
    ##  5         5            3.6         1.4         0.2  setosa 
    ##  6         5.4          3.9         1.7         0.4  setosa 
    ##  7         5.82         3.4         1.4         0.3  setosa 
    ##  8         5            3.4         1.5         0.2  setosa 
    ##  9         4.4          2.9         1.4         0.2  setosa 
    ## 10         4.9          3.1         3.77        0.1  setosa 
    ## # … with 140 more rows
